MA206 Introduction to RStudio and Tidyverse
…
## # A tibble: 1 x 1
##   Sepal.Width.mean
##              <dbl>
## 1             3.43

If you were to read this code, you would say: Take iris.data and then filter to keep only the setosa species and then calculate the mean of the sepal width. The resulting mean of the Setosa Iris sepal widths is 3.43 \(cm\).

When using the filter command to filter based on a string (words) you will have to put the words inside of "".

You can also retain only the rows of data with a sepal width less than or equal to 3.

iris.data%>%
  filter(Sepal.Width<=3)

## # A tibble: 83 x 5
##    Sepal.Length Sepal.Width Petal.Length Petal.Width Species   
##           <dbl>       <dbl>        <dbl>       <dbl> <chr>     
##  1          4.9         3            1.4         0.2 setosa    
##  2          4.4         2.9          1.4         0.2 setosa    
##  3          4.8         3            1.4         0.1 setosa    
##  4          4.3         3            1.1         0.1 setosa    
##  5          5           3            1.6         0.2 setosa    
##  6          4.4         3            1.3         0.2 setosa    
##  7          4.5         2.3          1.3         0.3 setosa    
##  8          4.8         3            1.4         0.3 setosa    
##  9          5.5         2.3          4           1.3 versicolor
## 10          6.5         2.8          4.6         1.5 versicolor
## # ... with 73 more rows
…
You can also make a new data set for just the setosa species

setosa.data=iris.data%>%
  filter(Species=="setosa")

You will notice you have a new variable in your global environment called setosa.data.

The Select Command

In real world problems you will have more variables (columns) than you want in your data set. Big data sets are difficult for your computers to handle and sometimes will make manipulation difficult. Lets say that you want your data set to only have sepal length and Species. You can use the select command to do this. The select command retains or removes columns from a data set.

iris.data%>%
  select(Sepal.Length,Species)

## # A tibble: 150 x 2
##    Sepal.Length Species
##           <dbl> <chr>  
##  1          5.1 setosa 
##  2          4.9 setosa 
##  3          4.7 setosa 
##  4          4.6 setosa 
##  5          5   setosa 
##  6          5.4 setosa 
##  7          4.6 setosa 
##  8          5   setosa 
##  9          4.4 setosa 
## 10          4.9 setosa 
## # ... with 140 more rows

You can also use - to remove columns.

iris.data%>%
  select(-Sepal.Width,-Petal.Length,-Petal.Width)

## # A tibble: 150 x 2
##    Sepal.Length Species
##           <dbl> <chr>  
##  1          5.1 setosa 
##  2          4.9 setosa 
##  3          4.7 setosa 
##  4          4.6 setosa 
##  5          5   setosa 
##  6          5.4 setosa 
##  7          4.6 setosa 
##  8          5   setosa 
##  9          4.4 setosa 
## 10          4.9 setosa 
## # ... with 140 more rows

Both methods give you the same results, but sometimes its easier to remove columns you want removed or select columns you want to keep.

The Mutate Command

Sometimes you might want to calculate a new variable using your existing variables. What if you wanted a new variable: The ratio of the petal length to the petal width. The mutate command allows you to create new variables (columns) using mathematical manipulations.

iris.data%>%
  mutate(Petal.Ratio=Petal.Length/Petal.Width)

## # A tibble: 150 x 6
##    Sepal.Length Sepal.Width Petal.Length Petal.Width Species Petal.Ratio
##           <dbl>       <dbl>        <dbl>       <dbl> <chr>         <dbl>
##  1          5.1         3.5          1.4         0.2 setosa         7.00
##  2          4.9         3            1.4         0.2 setosa         7.00
##  3          4.7         3.2          1.3         0.2 setosa         6.5 
##  4          4.6         3.1          1.5         0.2 setosa         7.5 
##  5          5           3.6          1.4         0.2 setosa         7.00
##  6          5.4         3.9          1.7         0.4 setosa         4.25
##  7          4.6         3.4          1.4         0.3 setosa         4.67
##  8          5           3.4          1.5         0.2 setosa         7.5 
##  9          4.4         2.9          1.4         0.2 setosa         7.00
## 10          4.9         3.1          1.5         0.1 setosa        15   
## # ... with 140 more rows
…
